%YAML 1.1
%TAG !u! tag:unity3d.com,2011:
--- !u!29 &1
OcclusionCullingSettings:
  m_ObjectHideFlags: 0
  serializedVersion: 2
  m_OcclusionBakeSettings:
    smallestOccluder: 5
    smallestHole: 0.25
    backfaceThreshold: 100
  m_SceneGUID: 00000000000000000000000000000000
  m_OcclusionCullingData: {fileID: 0}
--- !u!104 &2
RenderSettings:
  m_ObjectHideFlags: 0
  serializedVersion: 9
  m_Fog: 0
  m_FogColor: {r: 0.5, g: 0.5, b: 0.5, a: 1}
  m_FogMode: 3
  m_FogDensity: 0.01
  m_LinearFogStart: 0
  m_LinearFogEnd: 300
  m_AmbientSkyColor: {r: 0.89887995, g: 0.96247995, b: 1.0981599, a: 4.24}
  m_AmbientEquatorColor: {r: 0.48335996, g: 0.53, b: 0.56391996, a: 4.24}
  m_AmbientGroundColor: {r: 0.19927998, g: 0.18232, b: 0.1484, a: 4.24}
  m_AmbientIntensity: 4.24
  m_AmbientMode: 0
  m_SubtractiveShadowColor: {r: 0.42, g: 0.478, b: 0.627, a: 1}
  m_SkyboxMaterial: {fileID: 10304, guid: 0000000000000000f000000000000000, type: 0}
  m_HaloStrength: 0.5
  m_FlareStrength: 1
  m_FlareFadeSpeed: 3
  m_HaloTexture: {fileID: 0}
  m_SpotCookie: {fileID: 10001, guid: 0000000000000000e000000000000000, type: 0}
  m_DefaultReflectionMode: 0
  m_DefaultReflectionResolution: 128
  m_ReflectionBounces: 1
  m_ReflectionIntensity: 1
  m_CustomReflection: {fileID: 0}
  m_Sun: {fileID: 0}
  m_IndirectSpecularColor: {r: 0, g: 0, b: 0, a: 1}
  m_UseRadianceAmbientProbe: 0
--- !u!157 &3
LightmapSettings:
  m_ObjectHideFlags: 0
  serializedVersion: 12
  m_GIWorkflowMode: 0
  m_GISettings:
    serializedVersion: 2
    m_BounceScale: 1
    m_IndirectOutputScale: 1
    m_AlbedoBoost: 1
    m_EnvironmentLightingMode: 0
    m_EnableBakedLightmaps: 1
    m_EnableRealtimeLightmaps: 1
  m_LightmapEditorSettings:
    serializedVersion: 12
    m_Resolution: 2
    m_BakeResolution: 40
    m_AtlasSize: 1024
    m_AO: 0
    m_AOMaxDistance: 1
    m_CompAOExponent: 0
    m_CompAOExponentDirect: 0
    m_ExtractAmbientOcclusion: 0
    m_Padding: 2
    m_LightmapParameters: {fileID: 0}
    m_LightmapsBakeMode: 1
    m_TextureCompression: 1
    m_FinalGather: 0
    m_FinalGatherFiltering: 1
    m_FinalGatherRayCount: 1024
    m_ReflectionCompression: 2
    m_MixedBakeMode: 1
    m_BakeBackend: 0
    m_PVRSampling: 1
    m_PVRDirectSampleCount: 32
    m_PVRSampleCount: 512
    m_PVRBounces: 2
    m_PVREnvironmentSampleCount: 512
    m_PVREnvironmentReferencePointCount: 2048
    m_PVRFilteringMode: 0
    m_PVRDenoiserTypeDirect: 0
    m_PVRDenoiserTypeIndirect: 0
    m_PVRDenoiserTypeAO: 0
    m_PVRFilterTypeDirect: 0
    m_PVRFilterTypeIndirect: 0
    m_PVRFilterTypeAO: 0
    m_PVREnvironmentMIS: 0
    m_PVRCulling: 1
    m_PVRFilteringGaussRadiusDirect: 1
    m_PVRFilteringGaussRadiusIndirect: 5
    m_PVRFilteringGaussRadiusAO: 2
    m_PVRFilteringAtrousPositionSigmaDirect: 0.5
    m_PVRFilteringAtrousPositionSigmaIndirect: 2
    m_PVRFilteringAtrousPositionSigmaAO: 1
    m_ExportTrainingData: 0
    m_TrainingDataDestination: TrainingData
    m_LightProbeSampleCountMultiplier: 4
  m_LightingDataAsset: {fileID: 0}
  m_LightingSettings: {fileID: 4890085278179872738, guid: f1fb09598e677dc4898f244924001b3d, type: 2}
--- !u!196 &4
NavMeshSettings:
  serializedVersion: 2
  m_ObjectHideFlags: 0
  m_BuildSettings:
    serializedVersion: 2
    agentTypeID: 0
    agentRadius: 0.5
    agentHeight: 2
    agentSlope: 45
    agentClimb: 0.4
    ledgeDropHeight: 0
    maxJumpAcrossDistance: 0
    minRegionArea: 2
    manualCellSize: 0
    cellSize: 0.16666667
    manualTileSize: 0
    tileSize: 256
    accuratePlacement: 0
    maxJobWorkers: 0
    preserveTilesOutsideBounds: 0
    debug:
      m_Flags: 0
  m_NavMeshData: {fileID: 0}
--- !u!1 &157063054
GameObject:
  m_ObjectHideFlags: 0
  m_CorrespondingSourceObject: {fileID: 0}
  m_PrefabInstance: {fileID: 0}
  m_PrefabAsset: {fileID: 0}
  serializedVersion: 6
  m_Component:
  - component: {fileID: 157063058}
  - component: {fileID: 157063057}
  - component: {fileID: 157063056}
  - component: {fileID: 157063055}
  m_Layer: 0
  m_Name: Plane
  m_TagString: Untagged
  m_Icon: {fileID: 0}
  m_NavMeshLayer: 0
  m_StaticEditorFlags: 0
  m_IsActive: 1
--- !u!23 &157063055
MeshRenderer:
  m_ObjectHideFlags: 0
  m_CorrespondingSourceObject: {fileID: 0}
  m_PrefabInstance: {fileID: 0}
  m_PrefabAsset: {fileID: 0}
  m_GameObject: {fileID: 157063054}
  m_Enabled: 1
  m_CastShadows: 1
  m_ReceiveShadows: 1
  m_DynamicOccludee: 1
  m_StaticShadowCaster: 0
  m_MotionVectors: 1
  m_LightProbeUsage: 1
  m_ReflectionProbeUsage: 1
  m_RayTracingMode: 2
  m_RayTraceProcedural: 0
  m_RenderingLayerMask: 1
  m_RendererPriority: 0
  m_Materials:
  - {fileID: 2100000, guid: 4bb77f64c10f21d4488807ccfba200d4, type: 2}
  m_StaticBatchInfo:
    firstSubMesh: 0
    subMeshCount: 0
  m_StaticBatchRoot: {fileID: 0}
  m_ProbeAnchor: {fileID: 0}
  m_LightProbeVolumeOverride: {fileID: 0}
  m_ScaleInLightmap: 1
  m_ReceiveGI: 1
  m_PreserveUVs: 1
  m_IgnoreNormalsForChartDetection: 0
  m_ImportantGI: 0
  m_StitchLightmapSeams: 1
  m_SelectedEditorRenderState: 3
  m_MinimumChartSize: 4
  m_AutoUVMaxDistance: 0.5
  m_AutoUVMaxAngle: 89
  m_LightmapParameters: {fileID: 0}
  m_SortingLayerID: 0
  m_SortingLayer: 0
  m_SortingOrder: 0
  m_AdditionalVertexStreams: {fileID: 0}
--- !u!64 &157063056
MeshCollider:
  m_ObjectHideFlags: 0
  m_CorrespondingSourceObject: {fileID: 0}
  m_PrefabInstance: {fileID: 0}
  m_PrefabAsset: {fileID: 0}
  m_GameObject: {fileID: 157063054}
  m_Material: {fileID: 0}
  m_IsTrigger: 0
  m_Enabled: 1
  serializedVersion: 4
  m_Convex: 0
  m_CookingOptions: 30
  m_Mesh: {fileID: 10209, guid: 0000000000000000e000000000000000, type: 0}
--- !u!33 &157063057
MeshFilter:
  m_ObjectHideFlags: 0
  m_CorrespondingSourceObject: {fileID: 0}
  m_PrefabInstance: {fileID: 0}
  m_PrefabAsset: {fileID: 0}
  m_GameObject: {fileID: 157063054}
  m_Mesh: {fileID: 10209, guid: 0000000000000000e000000000000000, type: 0}
--- !u!4 &157063058
Transform:
  m_ObjectHideFlags: 0
  m_CorrespondingSourceObject: {fileID: 0}
  m_PrefabInstance: {fileID: 0}
  m_PrefabAsset: {fileID: 0}
  m_GameObject: {fileID: 157063054}
  m_LocalRotation: {x: 0, y: 0, z: 0, w: 1}
  m_LocalPosition: {x: 2.21, y: -0, z: -4.98}
  m_LocalScale: {x: 3.0871837, y: 1, z: 1.9640564}
  m_ConstrainProportionsScale: 0
  m_Children: []
  m_Father: {fileID: 0}
  m_RootOrder: 6
  m_LocalEulerAnglesHint: {x: 0, y: 0, z: 0}
--- !u!1 &299785210
GameObject:
  m_ObjectHideFlags: 0
  m_CorrespondingSourceObject: {fileID: 0}
  m_PrefabInstance: {fileID: 0}
  m_PrefabAsset: {fileID: 0}
  serializedVersion: 6
  m_Component:
  - component: {fileID: 299785212}
  - component: {fileID: 299785211}
  m_Layer: 0
  m_Name: Directional Light
  m_TagString: Untagged
  m_Icon: {fileID: 0}
  m_NavMeshLayer: 0
  m_StaticEditorFlags: 0
  m_IsActive: 1
--- !u!108 &299785211
Light:
  m_ObjectHideFlags: 0
  m_CorrespondingSourceObject: {fileID: 0}
  m_PrefabInstance: {fileID: 0}
  m_PrefabAsset: {fileID: 0}
  m_GameObject: {fileID: 299785210}
  m_Enabled: 1
  serializedVersion: 10
  m_Type: 1
  m_Shape: 0
  m_Color: {r: 1, g: 0.95686275, b: 0.8392157, a: 1}
  m_Intensity: 2.65
  m_Range: 10
  m_SpotAngle: 30
  m_InnerSpotAngle: 21.80208
  m_CookieSize: 10
  m_Shadows:
    m_Type: 2
    m_Resolution: -1
    m_CustomResolution: -1
    m_Strength: 1
    m_Bias: 0.05
    m_NormalBias: 0.4
    m_NearPlane: 0.2
    m_CullingMatrixOverride:
      e00: 1
      e01: 0
      e02: 0
      e03: 0
      e10: 0
      e11: 1
      e12: 0
      e13: 0
      e20: 0
      e21: 0
      e22: 1
      e23: 0
      e30: 0
      e31: 0
      e32: 0
      e33: 1
    m_UseCullingMatrixOverride: 0
  m_Cookie: {fileID: 0}
  m_DrawHalo: 0
  m_Flare: {fileID: 0}
  m_RenderMode: 0
  m_CullingMask:
    serializedVersion: 2
    m_Bits: 4294967295
  m_RenderingLayerMask: 1
  m_Lightmapping: 4
  m_LightShadowCasterMode: 0
  m_AreaSize: {x: 1, y: 1}
  m_BounceIntensity: 1
  m_ColorTemperature: 6570
  m_UseColorTemperature: 0
  m_BoundingSphereOverride: {x: 0, y: 0, z: 0, w: 0}
  m_UseBoundingSphereOverride: 0
  m_UseViewFrustumForShadowCasterCull: 1
  m_ShadowRadius: 0
  m_ShadowAngle: 0
--- !u!4 &299785212
Transform:
  m_ObjectHideFlags: 0
  m_CorrespondingSourceObject: {fileID: 0}
  m_PrefabInstance: {fileID: 0}
  m_PrefabAsset: {fileID: 0}
  m_GameObject: {fileID: 299785210}
  m_LocalRotation: {x: -0.19775307, y: -0.80096674, z: 0.37349692, w: -0.42408273}
  m_LocalPosition: {x: 0, y: 3, z: 0}
  m_LocalScale: {x: 1, y: 1, z: 1}
  m_ConstrainProportionsScale: 0
  m_Children: []
  m_Father: {fileID: 0}
  m_RootOrder: 5
  m_LocalEulerAnglesHint: {x: 0, y: 0, z: 0}
--- !u!1001 &350227308
PrefabInstance:
  m_ObjectHideFlags: 0
  serializedVersion: 2
  m_Modification:
    m_TransformParent: {fileID: 0}
    m_Modifications:
    - target: {fileID: 105916, guid: 2e0ab5a8b607d4b47bff2ab68ec02f4c, type: 3}
      propertyPath: m_IsActive
      value: 1
      objectReference: {fileID: 0}
    - target: {fileID: 431456, guid: 2e0ab5a8b607d4b47bff2ab68ec02f4c, type: 3}
      propertyPath: m_RootOrder
      value: 10
      objectReference: {fileID: 0}
    - target: {fileID: 431456, guid: 2e0ab5a8b607d4b47bff2ab68ec02f4c, type: 3}
      propertyPath: m_LocalPosition.x
      value: -1.93799996
      objectReference: {fileID: 0}
    - target: {fileID: 431456, guid: 2e0ab5a8b607d4b47bff2ab68ec02f4c, type: 3}
      propertyPath: m_LocalPosition.y
      value: 0
      objectReference: {fileID: 0}
    - target: {fileID: 431456, guid: 2e0ab5a8b607d4b47bff2ab68ec02f4c, type: 3}
      propertyPath: m_LocalPosition.z
      value: -1.90600002
      objectReference: {fileID: 0}
    - target: {fileID: 431456, guid: 2e0ab5a8b607d4b47bff2ab68ec02f4c, type: 3}
      propertyPath: m_LocalRotation.w
      value: 1
      objectReference: {fileID: 0}
    - target: {fileID: 431456, guid: 2e0ab5a8b607d4b47bff2ab68ec02f4c, type: 3}
      propertyPath: m_LocalRotation.x
      value: 0
      objectReference: {fileID: 0}
    - target: {fileID: 431456, guid: 2e0ab5a8b607d4b47bff2ab68ec02f4c, type: 3}
      propertyPath: m_LocalRotation.y
      value: 0
      objectReference: {fileID: 0}
    - target: {fileID: 431456, guid: 2e0ab5a8b607d4b47bff2ab68ec02f4c, type: 3}
      propertyPath: m_LocalRotation.z
      value: 0
      objectReference: {fileID: 0}
    - target: {fileID: 14411520, guid: 2e0ab5a8b607d4b47bff2ab68ec02f4c, type: 3}
      propertyPath: m_ConnectedAnchor.y
      value: .000545511488
      objectReference: {fileID: 0}
    - target: {fileID: 14411520, guid: 2e0ab5a8b607d4b47bff2ab68ec02f4c, type: 3}
      propertyPath: m_ConnectedAnchor.z
      value: 9.52128858e-07
      objectReference: {fileID: 0}
    - target: {fileID: 14423798, guid: 2e0ab5a8b607d4b47bff2ab68ec02f4c, type: 3}
      propertyPath: m_ConnectedAnchor.x
      value: -.163735211
      objectReference: {fileID: 0}
    - target: {fileID: 14423798, guid: 2e0ab5a8b607d4b47bff2ab68ec02f4c, type: 3}
      propertyPath: m_ConnectedAnchor.y
      value: 5.7509169e-08
      objectReference: {fileID: 0}
    - target: {fileID: 14423798, guid: 2e0ab5a8b607d4b47bff2ab68ec02f4c, type: 3}
      propertyPath: m_ConnectedAnchor.z
      value: -7.4505806e-09
      objectReference: {fileID: 0}
    - target: {fileID: 14450858, guid: 2e0ab5a8b607d4b47bff2ab68ec02f4c, type: 3}
      propertyPath: m_ConnectedAnchor.x
      value: 1.49011569e-07
      objectReference: {fileID: 0}
    - target: {fileID: 14450858, guid: 2e0ab5a8b607d4b47bff2ab68ec02f4c, type: 3}
      propertyPath: m_ConnectedAnchor.y
      value: 1.83588e-07
      objectReference: {fileID: 0}
    - target: {fileID: 14450858, guid: 2e0ab5a8b607d4b47bff2ab68ec02f4c, type: 3}
      propertyPath: m_ConnectedAnchor.z
      value: .108087063
      objectReference: {fileID: 0}
    - target: {fileID: 14458152, guid: 2e0ab5a8b607d4b47bff2ab68ec02f4c, type: 3}
      propertyPath: m_ConnectedAnchor.y
      value: 9.31545618e-10
      objectReference: {fileID: 0}
    - target: {fileID: 14458152, guid: 2e0ab5a8b607d4b47bff2ab68ec02f4c, type: 3}
      propertyPath: m_ConnectedAnchor.z
      value: -8.46938519e-09
      objectReference: {fileID: 0}
    - target: {fileID: 14470056, guid: 2e0ab5a8b607d4b47bff2ab68ec02f4c, type: 3}
      propertyPath: m_ConnectedAnchor.y
      value: -.00644287653
      objectReference: {fileID: 0}
    - target: {fileID: 14470056, guid: 2e0ab5a8b607d4b47bff2ab68ec02f4c, type: 3}
      propertyPath: m_ConnectedAnchor.z
      value: .0981198549
      objectReference: {fileID: 0}
    - target: {fileID: 14483930, guid: 2e0ab5a8b607d4b47bff2ab68ec02f4c, type: 3}
      propertyPath: m_ConnectedAnchor.y
      value: .00459071528
      objectReference: {fileID: 0}
    - target: {fileID: 14483930, guid: 2e0ab5a8b607d4b47bff2ab68ec02f4c, type: 3}
      propertyPath: m_ConnectedAnchor.z
      value: 5.01719093e-08
      objectReference: {fileID: 0}
    - target: {fileID: 14491738, guid: 2e0ab5a8b607d4b47bff2ab68ec02f4c, type: 3}
      propertyPath: m_ConnectedAnchor.y
      value: -.00644238153
      objectReference: {fileID: 0}
    - target: {fileID: 14491738, guid: 2e0ab5a8b607d4b47bff2ab68ec02f4c, type: 3}
      propertyPath: m_ConnectedAnchor.z
      value: -.0981198624
      objectReference: {fileID: 0}
    - target: {fileID: 14494350, guid: 2e0ab5a8b607d4b47bff2ab68ec02f4c, type: 3}
      propertyPath: m_ConnectedAnchor.x
      value: -1.49011569e-07
      objectReference: {fileID: 0}
    - target: {fileID: 14494350, guid: 2e0ab5a8b607d4b47bff2ab68ec02f4c, type: 3}
      propertyPath: m_ConnectedAnchor.y
      value: -1.83588e-07
      objectReference: {fileID: 0}
    - target: {fileID: 14494350, guid: 2e0ab5a8b607d4b47bff2ab68ec02f4c, type: 3}
      propertyPath: m_ConnectedAnchor.z
      value: -.108087063
      objectReference: {fileID: 0}
    - target: {fileID: 14495768, guid: 2e0ab5a8b607d4b47bff2ab68ec02f4c, type: 3}
      propertyPath: m_ConnectedAnchor.y
      value: -5.07567997e-08
      objectReference: {fileID: 0}
    - target: {fileID: 14495768, guid: 2e0ab5a8b607d4b47bff2ab68ec02f4c, type: 3}
      propertyPath: m_ConnectedAnchor.z
      value: 3.62341694e-08
      objectReference: {fileID: 0}
    - target: {fileID: 14498740, guid: 2e0ab5a8b607d4b47bff2ab68ec02f4c, type: 3}
      propertyPath: m_ConnectedAnchor.x
      value: -.163735271
      objectReference: {fileID: 0}
    - target: {fileID: 14498740, guid: 2e0ab5a8b607d4b47bff2ab68ec02f4c, type: 3}
      propertyPath: m_ConnectedAnchor.y
      value: -3.18977982e-08
      objectReference: {fileID: 0}
    - target: {fileID: 14498740, guid: 2e0ab5a8b607d4b47bff2ab68ec02f4c, type: 3}
      propertyPath: m_ConnectedAnchor.z
      value: 7.4505806e-08
      objectReference: {fileID: 0}
    m_RemovedComponents: []
  m_SourcePrefab: {fileID: 100100000, guid: 2e0ab5a8b607d4b47bff2ab68ec02f4c, type: 3}
--- !u!1 &357889651
GameObject:
  m_ObjectHideFlags: 0
  m_CorrespondingSourceObject: {fileID: 0}
  m_PrefabInstance: {fileID: 0}
  m_PrefabAsset: {fileID: 0}
  serializedVersion: 6
  m_Component:
  - component: {fileID: 357889656}
  - component: {fileID: 357889655}
  - component: {fileID: 357889653}
  - component: {fileID: 357889652}
  m_Layer: 0
  m_Name: Main Camera
  m_TagString: MainCamera
  m_Icon: {fileID: 0}
  m_NavMeshLayer: 0
  m_StaticEditorFlags: 0
  m_IsActive: 1
--- !u!81 &357889652
AudioListener:
  m_ObjectHideFlags: 0
  m_CorrespondingSourceObject: {fileID: 0}
  m_PrefabInstance: {fileID: 0}
  m_PrefabAsset: {fileID: 0}
  m_GameObject: {fileID: 357889651}
  m_Enabled: 1
--- !u!124 &357889653
Behaviour:
  m_ObjectHideFlags: 0
  m_CorrespondingSourceObject: {fileID: 0}
  m_PrefabInstance: {fileID: 0}
  m_PrefabAsset: {fileID: 0}
  m_GameObject: {fileID: 357889651}
  m_Enabled: 1
--- !u!20 &357889655
Camera:
  m_ObjectHideFlags: 0
  m_CorrespondingSourceObject: {fileID: 0}
  m_PrefabInstance: {fileID: 0}
  m_PrefabAsset: {fileID: 0}
  m_GameObject: {fileID: 357889651}
  m_Enabled: 1
  serializedVersion: 2
  m_ClearFlags: 1
  m_BackGroundColor: {r: 0.19215687, g: 0.3019608, b: 0.4745098, a: 0.019607844}
  m_projectionMatrixMode: 1
  m_GateFitMode: 2
  m_FOVAxisMode: 0
  m_SensorSize: {x: 36, y: 24}
  m_LensShift: {x: 0, y: 0}
  m_FocalLength: 50
  m_NormalizedViewPortRect:
    serializedVersion: 2
    x: 0
    y: 0
    width: 1
    height: 1
  near clip plane: 0.3
  far clip plane: 1000
  field of view: 30
  orthographic: 0
  orthographic size: 5
  m_Depth: -1
  m_CullingMask:
    serializedVersion: 2
    m_Bits: 4294967295
  m_RenderingPath: -1
  m_TargetTexture: {fileID: 0}
  m_TargetDisplay: 0
  m_TargetEye: 3
  m_HDR: 0
  m_AllowMSAA: 1
  m_AllowDynamicResolution: 0
  m_ForceIntoRT: 0
  m_OcclusionCulling: 1
  m_StereoConvergence: 10
  m_StereoSeparation: 0.022
--- !u!4 &357889656
Transform:
  m_ObjectHideFlags: 0
  m_CorrespondingSourceObject: {fileID: 0}
  m_PrefabInstance: {fileID: 0}
  m_PrefabAsset: {fileID: 0}
  m_GameObject: {fileID: 357889651}
  m_LocalRotation: {x: -0.0015405815, y: -0.9818182, z: 0.18926488, w: -0.01447486}
  m_LocalPosition: {x: 0.151, y: 2.74, z: 7.34}
  m_LocalScale: {x: 1, y: 1, z: 1}
  m_ConstrainProportionsScale: 0
  m_Children: []
  m_Father: {fileID: 0}
  m_RootOrder: 4
  m_LocalEulerAnglesHint: {x: 0, y: 0, z: 0}
--- !u!1001 &642783610
PrefabInstance:
  m_ObjectHideFlags: 0
  serializedVersion: 2
  m_Modification:
    m_TransformParent: {fileID: 0}
    m_Modifications:
    - target: {fileID: 191150, guid: f848d39d1db36ad439cc5d7f308339d1, type: 3}
      propertyPath: m_IsActive
      value: 1
      objectReference: {fileID: 0}
    - target: {fileID: 430340, guid: f848d39d1db36ad439cc5d7f308339d1, type: 3}
      propertyPath: m_RootOrder
      value: 0
      objectReference: {fileID: 0}
    - target: {fileID: 430340, guid: f848d39d1db36ad439cc5d7f308339d1, type: 3}
      propertyPath: m_LocalPosition.x
      value: 1.70000005
      objectReference: {fileID: 0}
    - target: {fileID: 430340, guid: f848d39d1db36ad439cc5d7f308339d1, type: 3}
      propertyPath: m_LocalPosition.y
      value: 0
      objectReference: {fileID: 0}
    - target: {fileID: 430340, guid: f848d39d1db36ad439cc5d7f308339d1, type: 3}
      propertyPath: m_LocalPosition.z
      value: 0
      objectReference: {fileID: 0}
    - target: {fileID: 430340, guid: f848d39d1db36ad439cc5d7f308339d1, type: 3}
      propertyPath: m_LocalRotation.w
      value: 1
      objectReference: {fileID: 0}
    - target: {fileID: 430340, guid: f848d39d1db36ad439cc5d7f308339d1, type: 3}
      propertyPath: m_LocalRotation.x
      value: 0
      objectReference: {fileID: 0}
    - target: {fileID: 430340, guid: f848d39d1db36ad439cc5d7f308339d1, type: 3}
      propertyPath: m_LocalRotation.y
      value: 0
      objectReference: {fileID: 0}
    - target: {fileID: 430340, guid: f848d39d1db36ad439cc5d7f308339d1, type: 3}
      propertyPath: m_LocalRotation.z
      value: 0
      objectReference: {fileID: 0}
    m_RemovedComponents: []
  m_SourcePrefab: {fileID: 100100000, guid: f848d39d1db36ad439cc5d7f308339d1, type: 3}
--- !u!1001 &655954878
PrefabInstance:
  m_ObjectHideFlags: 0
  serializedVersion: 2
  m_Modification:
    m_TransformParent: {fileID: 0}
    m_Modifications:
    - target: {fileID: 165194, guid: d33cc532d4f035241bb5f2becba47604, type: 3}
      propertyPath: m_IsActive
      value: 1
      objectReference: {fileID: 0}
    - target: {fileID: 490122, guid: d33cc532d4f035241bb5f2becba47604, type: 3}
      propertyPath: m_RootOrder
      value: 1
      objectReference: {fileID: 0}
    - target: {fileID: 490122, guid: d33cc532d4f035241bb5f2becba47604, type: 3}
      propertyPath: m_LocalPosition.x
      value: .839999974
      objectReference: {fileID: 0}
    - target: {fileID: 490122, guid: d33cc532d4f035241bb5f2becba47604, type: 3}
      propertyPath: m_LocalPosition.y
      value: 0
      objectReference: {fileID: 0}
    - target: {fileID: 490122, guid: d33cc532d4f035241bb5f2becba47604, type: 3}
      propertyPath: m_LocalPosition.z
      value: 0
      objectReference: {fileID: 0}
    - target: {fileID: 490122, guid: d33cc532d4f035241bb5f2becba47604, type: 3}
      propertyPath: m_LocalRotation.w
      value: 1
      objectReference: {fileID: 0}
    - target: {fileID: 490122, guid: d33cc532d4f035241bb5f2becba47604, type: 3}
      propertyPath: m_LocalRotation.x
      value: 0
      objectReference: {fileID: 0}
    - target: {fileID: 490122, guid: d33cc532d4f035241bb5f2becba47604, type: 3}
      propertyPath: m_LocalRotation.y
      value: 0
      objectReference: {fileID: 0}
    - target: {fileID: 490122, guid: d33cc532d4f035241bb5f2becba47604, type: 3}
      propertyPath: m_LocalRotation.z
      value: 0
      objectReference: {fileID: 0}
    m_RemovedComponents: []
  m_SourcePrefab: {fileID: 100100000, guid: d33cc532d4f035241bb5f2becba47604, type: 3}
--- !u!1001 &661950662
PrefabInstance:
  m_ObjectHideFlags: 0
  serializedVersion: 2
  m_Modification:
    m_TransformParent: {fileID: 0}
    m_Modifications:
    - target: {fileID: 189808, guid: f0e96b9d973dde84fb78ccad3d34ea70, type: 3}
      propertyPath: m_IsActive
      value: 1
      objectReference: {fileID: 0}
    - target: {fileID: 428600, guid: f0e96b9d973dde84fb78ccad3d34ea70, type: 3}
      propertyPath: m_RootOrder
      value: 8
      objectReference: {fileID: 0}
    - target: {fileID: 428600, guid: f0e96b9d973dde84fb78ccad3d34ea70, type: 3}
      propertyPath: m_LocalPosition.x
      value: -1.60899997
      objectReference: {fileID: 0}
    - target: {fileID: 428600, guid: f0e96b9d973dde84fb78ccad3d34ea70, type: 3}
      propertyPath: m_LocalPosition.y
      value: 0
      objectReference: {fileID: 0}
    - target: {fileID: 428600, guid: f0e96b9d973dde84fb78ccad3d34ea70, type: 3}
      propertyPath: m_LocalPosition.z
      value: 1.13199997
      objectReference: {fileID: 0}
    - target: {fileID: 428600, guid: f0e96b9d973dde84fb78ccad3d34ea70, type: 3}
      propertyPath: m_LocalRotation.w
      value: 1
      objectReference: {fileID: 0}
    - target: {fileID: 428600, guid: f0e96b9d973dde84fb78ccad3d34ea70, type: 3}
      propertyPath: m_LocalRotation.x
      value: 0
      objectReference: {fileID: 0}
    - target: {fileID: 428600, guid: f0e96b9d973dde84fb78ccad3d34ea70, type: 3}
      propertyPath: m_LocalRotation.y
      value: 0
      objectReference: {fileID: 0}
    - target: {fileID: 428600, guid: f0e96b9d973dde84fb78ccad3d34ea70, type: 3}
      propertyPath: m_LocalRotation.z
      value: 0
      objectReference: {fileID: 0}
    - target: {fileID: 14421198, guid: f0e96b9d973dde84fb78ccad3d34ea70, type: 3}
      propertyPath: m_ConnectedAnchor.y
      value: -5.07567997e-08
      objectReference: {fileID: 0}
    - target: {fileID: 14421198, guid: f0e96b9d973dde84fb78ccad3d34ea70, type: 3}
      propertyPath: m_ConnectedAnchor.z
      value: 3.62341694e-08
      objectReference: {fileID: 0}
    - target: {fileID: 14429232, guid: f0e96b9d973dde84fb78ccad3d34ea70, type: 3}
      propertyPath: m_ConnectedAnchor.x
      value: -1.49011569e-07
      objectReference: {fileID: 0}
    - target: {fileID: 14429232, guid: f0e96b9d973dde84fb78ccad3d34ea70, type: 3}
      propertyPath: m_ConnectedAnchor.y
      value: -1.83588e-07
      objectReference: {fileID: 0}
    - target: {fileID: 14429232, guid: f0e96b9d973dde84fb78ccad3d34ea70, type: 3}
      propertyPath: m_ConnectedAnchor.z
      value: -.108087063
      objectReference: {fileID: 0}
    - target: {fileID: 14439564, guid: f0e96b9d973dde84fb78ccad3d34ea70, type: 3}
      propertyPath: m_ConnectedAnchor.x
      value: -.163735271
      objectReference: {fileID: 0}
    - target: {fileID: 14439564, guid: f0e96b9d973dde84fb78ccad3d34ea70, type: 3}
      propertyPath: m_ConnectedAnchor.y
      value: -3.18977982e-08
      objectReference: {fileID: 0}
    - target: {fileID: 14439564, guid: f0e96b9d973dde84fb78ccad3d34ea70, type: 3}
      propertyPath: m_ConnectedAnchor.z
      value: 7.4505806e-08
      objectReference: {fileID: 0}
    - target: {fileID: 14450202, guid: f0e96b9d973dde84fb78ccad3d34ea70, type: 3}
      propertyPath: m_ConnectedAnchor.x
      value: 1.49011569e-07
      objectReference: {fileID: 0}
    - target: {fileID: 14450202, guid: f0e96b9d973dde84fb78ccad3d34ea70, type: 3}
      propertyPath: m_ConnectedAnchor.y
      value: 1.83588e-07
      objectReference: {fileID: 0}
    - target: {fileID: 14450202, guid: f0e96b9d973dde84fb78ccad3d34ea70, type: 3}
      propertyPath: m_ConnectedAnchor.z
      value: .108087063
      objectReference: {fileID: 0}
    - target: {fileID: 14451230, guid: f0e96b9d973dde84fb78ccad3d34ea70, type: 3}
      propertyPath: m_ConnectedAnchor.x
      value: -.163735211
      objectReference: {fileID: 0}
    - target: {fileID: 14451230, guid: f0e96b9d973dde84fb78ccad3d34ea70, type: 3}
      propertyPath: m_ConnectedAnchor.y
      value: 5.7509169e-08
      objectReference: {fileID: 0}
    - target: {fileID: 14451230, guid: f0e96b9d973dde84fb78ccad3d34ea70, type: 3}
      propertyPath: m_ConnectedAnchor.z
      value: -7.4505806e-09
      objectReference: {fileID: 0}
    - target: {fileID: 14465812, guid: f0e96b9d973dde84fb78ccad3d34ea70, type: 3}
      propertyPath: m_ConnectedAnchor.y
      value: 9.31545618e-10
      objectReference: {fileID: 0}
    - target: {fileID: 14465812, guid: f0e96b9d973dde84fb78ccad3d34ea70, type: 3}
      propertyPath: m_ConnectedAnchor.z
      value: -8.46938519e-09
      objectReference: {fileID: 0}
    - target: {fileID: 14470522, guid: f0e96b9d973dde84fb78ccad3d34ea70, type: 3}
      propertyPath: m_ConnectedAnchor.y
      value: .00459071528
      objectReference: {fileID: 0}
    - target: {fileID: 14470522, guid: f0e96b9d973dde84fb78ccad3d34ea70, type: 3}
      propertyPath: m_ConnectedAnchor.z
      value: 5.01719093e-08
      objectReference: {fileID: 0}
    - target: {fileID: 14480740, guid: f0e96b9d973dde84fb78ccad3d34ea70, type: 3}
      propertyPath: m_ConnectedAnchor.y
      value: -.00644287653
      objectReference: {fileID: 0}
    - target: {fileID: 14480740, guid: f0e96b9d973dde84fb78ccad3d34ea70, type: 3}
      propertyPath: m_ConnectedAnchor.z
      value: .0981197357
      objectReference: {fileID: 0}
    - target: {fileID: 14484234, guid: f0e96b9d973dde84fb78ccad3d34ea70, type: 3}
      propertyPath: m_ConnectedAnchor.y
      value: -.00644238153
      objectReference: {fileID: 0}
    - target: {fileID: 14484234, guid: f0e96b9d973dde84fb78ccad3d34ea70, type: 3}
      propertyPath: m_ConnectedAnchor.z
      value: -.0981198624
      objectReference: {fileID: 0}
    - target: {fileID: 14484818, guid: f0e96b9d973dde84fb78ccad3d34ea70, type: 3}
      propertyPath: m_ConnectedAnchor.y
      value: .000545511488
      objectReference: {fileID: 0}
    - target: {fileID: 14484818, guid: f0e96b9d973dde84fb78ccad3d34ea70, type: 3}
      propertyPath: m_ConnectedAnchor.z
      value: 9.52128858e-07
      objectReference: {fileID: 0}
    m_RemovedComponents: []
  m_SourcePrefab: {fileID: 100100000, guid: f0e96b9d973dde84fb78ccad3d34ea70, type: 3}
--- !u!1001 &832404305
PrefabInstance:
  m_ObjectHideFlags: 0
  serializedVersion: 2
  m_Modification:
    m_TransformParent: {fileID: 0}
    m_Modifications:
    - target: {fileID: 102180, guid: 05b0daca342dc8f4e967f04d831697bf, type: 3}
      propertyPath: m_IsActive
      value: 1
      objectReference: {fileID: 0}
    - target: {fileID: 466318, guid: 05b0daca342dc8f4e967f04d831697bf, type: 3}
      propertyPath: m_RootOrder
      value: 2
      objectReference: {fileID: 0}
    - target: {fileID: 466318, guid: 05b0daca342dc8f4e967f04d831697bf, type: 3}
      propertyPath: m_LocalPosition.x
      value: 0
      objectReference: {fileID: 0}
    - target: {fileID: 466318, guid: 05b0daca342dc8f4e967f04d831697bf, type: 3}
      propertyPath: m_LocalPosition.y
      value: 0
      objectReference: {fileID: 0}
    - target: {fileID: 466318, guid: 05b0daca342dc8f4e967f04d831697bf, type: 3}
      propertyPath: m_LocalPosition.z
      value: 0
      objectReference: {fileID: 0}
    - target: {fileID: 466318, guid: 05b0daca342dc8f4e967f04d831697bf, type: 3}
      propertyPath: m_LocalRotation.w
      value: 1
      objectReference: {fileID: 0}
    - target: {fileID: 466318, guid: 05b0daca342dc8f4e967f04d831697bf, type: 3}
      propertyPath: m_LocalRotation.x
      value: 0
      objectReference: {fileID: 0}
    - target: {fileID: 466318, guid: 05b0daca342dc8f4e967f04d831697bf, type: 3}
      propertyPath: m_LocalRotation.y
      value: 0
      objectReference: {fileID: 0}
    - target: {fileID: 466318, guid: 05b0daca342dc8f4e967f04d831697bf, type: 3}
      propertyPath: m_LocalRotation.z
      value: 0
      objectReference: {fileID: 0}
    m_RemovedComponents: []
  m_SourcePrefab: {fileID: 100100000, guid: 05b0daca342dc8f4e967f04d831697bf, type: 3}
--- !u!1001 &1331575542
PrefabInstance:
  m_ObjectHideFlags: 0
  serializedVersion: 2
  m_Modification:
    m_TransformParent: {fileID: 0}
    m_Modifications:
    - target: {fileID: 183106, guid: 543f1b91f1fe1fc48a4804d93ec164cf, type: 3}
      propertyPath: m_IsActive
      value: 1
      objectReference: {fileID: 0}
    - target: {fileID: 470800, guid: 543f1b91f1fe1fc48a4804d93ec164cf, type: 3}
      propertyPath: m_RootOrder
      value: 3
      objectReference: {fileID: 0}
    - target: {fileID: 470800, guid: 543f1b91f1fe1fc48a4804d93ec164cf, type: 3}
      propertyPath: m_LocalPosition.x
      value: -.976000011
      objectReference: {fileID: 0}
    - target: {fileID: 470800, guid: 543f1b91f1fe1fc48a4804d93ec164cf, type: 3}
      propertyPath: m_LocalPosition.y
      value: 0
      objectReference: {fileID: 0}
    - target: {fileID: 470800, guid: 543f1b91f1fe1fc48a4804d93ec164cf, type: 3}
      propertyPath: m_LocalPosition.z
      value: -1.22000003
      objectReference: {fileID: 0}
    - target: {fileID: 470800, guid: 543f1b91f1fe1fc48a4804d93ec164cf, type: 3}
      propertyPath: m_LocalRotation.w
      value: 1
      objectReference: {fileID: 0}
    - target: {fileID: 470800, guid: 543f1b91f1fe1fc48a4804d93ec164cf, type: 3}
      propertyPath: m_LocalRotation.x
      value: 0
      objectReference: {fileID: 0}
    - target: {fileID: 470800, guid: 543f1b91f1fe1fc48a4804d93ec164cf, type: 3}
      propertyPath: m_LocalRotation.y
      value: 0
      objectReference: {fileID: 0}
    - target: {fileID: 470800, guid: 543f1b91f1fe1fc48a4804d93ec164cf, type: 3}
      propertyPath: m_LocalRotation.z
      value: 0
      objectReference: {fileID: 0}
    m_RemovedComponents: []
  m_SourcePrefab: {fileID: 100100000, guid: 543f1b91f1fe1fc48a4804d93ec164cf, type: 3}
--- !u!1001 &1773498180
PrefabInstance:
  m_ObjectHideFlags: 0
  serializedVersion: 2
  m_Modification:
    m_TransformParent: {fileID: 0}
    m_Modifications:
    - target: {fileID: 138678, guid: 8e0190e41a1b3c546849b622b81d2f8c, type: 3}
      propertyPath: m_IsActive
      value: 1
      objectReference: {fileID: 0}
    - target: {fileID: 442146, guid: 8e0190e41a1b3c546849b622b81d2f8c, type: 3}
      propertyPath: m_RootOrder
      value: 9
      objectReference: {fileID: 0}
    - target: {fileID: 442146, guid: 8e0190e41a1b3c546849b622b81d2f8c, type: 3}
      propertyPath: m_LocalPosition.x
      value: 1.90999997
      objectReference: {fileID: 0}
    - target: {fileID: 442146, guid: 8e0190e41a1b3c546849b622b81d2f8c, type: 3}
      propertyPath: m_LocalPosition.y
      value: 0
      objectReference: {fileID: 0}
    - target: {fileID: 442146, guid: 8e0190e41a1b3c546849b622b81d2f8c, type: 3}
      propertyPath: m_LocalPosition.z
      value: -2.48000002
      objectReference: {fileID: 0}
    - target: {fileID: 442146, guid: 8e0190e41a1b3c546849b622b81d2f8c, type: 3}
      propertyPath: m_LocalRotation.w
      value: 1
      objectReference: {fileID: 0}
    - target: {fileID: 442146, guid: 8e0190e41a1b3c546849b622b81d2f8c, type: 3}
      propertyPath: m_LocalRotation.x
      value: 0
      objectReference: {fileID: 0}
    - target: {fileID: 442146, guid: 8e0190e41a1b3c546849b622b81d2f8c, type: 3}
      propertyPath: m_LocalRotation.y
      value: 0
      objectReference: {fileID: 0}
    - target: {fileID: 442146, guid: 8e0190e41a1b3c546849b622b81d2f8c, type: 3}
      propertyPath: m_LocalRotation.z
      value: 0
      objectReference: {fileID: 0}
    - target: {fileID: 14409488, guid: 8e0190e41a1b3c546849b622b81d2f8c, type: 3}
      propertyPath: m_ConnectedAnchor.x
      value: 1.49011726e-07
      objectReference: {fileID: 0}
    - target: {fileID: 14409488, guid: 8e0190e41a1b3c546849b622b81d2f8c, type: 3}
      propertyPath: m_ConnectedAnchor.y
      value: 6.43787033e-08
      objectReference: {fileID: 0}
    - target: {fileID: 14409488, guid: 8e0190e41a1b3c546849b622b81d2f8c, type: 3}
      propertyPath: m_ConnectedAnchor.z
      value: .108087063
      objectReference: {fileID: 0}
    - target: {fileID: 14414002, guid: 8e0190e41a1b3c546849b622b81d2f8c, type: 3}
      propertyPath: m_ConnectedAnchor.x
      value: -.163735271
      objectReference: {fileID: 0}
    - target: {fileID: 14414002, guid: 8e0190e41a1b3c546849b622b81d2f8c, type: 3}
      propertyPath: m_ConnectedAnchor.y
      value: -3.18977982e-08
      objectReference: {fileID: 0}
    - target: {fileID: 14414002, guid: 8e0190e41a1b3c546849b622b81d2f8c, type: 3}
      propertyPath: m_ConnectedAnchor.z
      value: 7.4505806e-08
      objectReference: {fileID: 0}
    - target: {fileID: 14418506, guid: 8e0190e41a1b3c546849b622b81d2f8c, type: 3}
      propertyPath: m_ConnectedAnchor.y
      value: 9.31545618e-10
      objectReference: {fileID: 0}
    - target: {fileID: 14418506, guid: 8e0190e41a1b3c546849b622b81d2f8c, type: 3}
      propertyPath: m_ConnectedAnchor.z
      value: -8.46938519e-09
      objectReference: {fileID: 0}
    - target: {fileID: 14438258, guid: 8e0190e41a1b3c546849b622b81d2f8c, type: 3}
      propertyPath: m_ConnectedAnchor.y
      value: .00459071528
      objectReference: {fileID: 0}
    - target: {fileID: 14438258, guid: 8e0190e41a1b3c546849b622b81d2f8c, type: 3}
      propertyPath: m_ConnectedAnchor.z
      value: 5.01719093e-08
      objectReference: {fileID: 0}
    - target: {fileID: 14439934, guid: 8e0190e41a1b3c546849b622b81d2f8c, type: 3}
      propertyPath: m_ConnectedAnchor.y
      value: -.00644238153
      objectReference: {fileID: 0}
    - target: {fileID: 14439934, guid: 8e0190e41a1b3c546849b622b81d2f8c, type: 3}
      propertyPath: m_ConnectedAnchor.z
      value: -.0981197432
      objectReference: {fileID: 0}
    - target: {fileID: 14446826, guid: 8e0190e41a1b3c546849b622b81d2f8c, type: 3}
      propertyPath: m_ConnectedAnchor.x
      value: -.1637353
      objectReference: {fileID: 0}
    - target: {fileID: 14446826, guid: 8e0190e41a1b3c546849b622b81d2f8c, type: 3}
      propertyPath: m_ConnectedAnchor.y
      value: 5.69270924e-08
      objectReference: {fileID: 0}
    - target: {fileID: 14446826, guid: 8e0190e41a1b3c546849b622b81d2f8c, type: 3}
      propertyPath: m_ConnectedAnchor.z
      value: 7.4505806e-08
      objectReference: {fileID: 0}
    - target: {fileID: 14453520, guid: 8e0190e41a1b3c546849b622b81d2f8c, type: 3}
      propertyPath: m_ConnectedAnchor.x
      value: -1.49011726e-07
      objectReference: {fileID: 0}
    - target: {fileID: 14453520, guid: 8e0190e41a1b3c546849b622b81d2f8c, type: 3}
      propertyPath: m_ConnectedAnchor.y
      value: -6.43783622e-08
      objectReference: {fileID: 0}
    - target: {fileID: 14453520, guid: 8e0190e41a1b3c546849b622b81d2f8c, type: 3}
      propertyPath: m_ConnectedAnchor.z
      value: -.108086944
      objectReference: {fileID: 0}
    - target: {fileID: 14469242, guid: 8e0190e41a1b3c546849b622b81d2f8c, type: 3}
      propertyPath: m_ConnectedAnchor.y
      value: -.00644287653
      objectReference: {fileID: 0}
    - target: {fileID: 14469242, guid: 8e0190e41a1b3c546849b622b81d2f8c, type: 3}
      propertyPath: m_ConnectedAnchor.z
      value: .0981197357
      objectReference: {fileID: 0}
    - target: {fileID: 14471646, guid: 8e0190e41a1b3c546849b622b81d2f8c, type: 3}
      propertyPath: m_ConnectedAnchor.x
      value: -.11603009
      objectReference: {fileID: 0}
    - target: {fileID: 14471646, guid: 8e0190e41a1b3c546849b622b81d2f8c, type: 3}
      propertyPath: m_ConnectedAnchor.y
      value: 6.84524935e-08
      objectReference: {fileID: 0}
    - target: {fileID: 14471646, guid: 8e0190e41a1b3c546849b622b81d2f8c, type: 3}
      propertyPath: m_ConnectedAnchor.z
      value: 3.62339989e-08
      objectReference: {fileID: 0}
    - target: {fileID: 14494500, guid: 8e0190e41a1b3c546849b622b81d2f8c, type: 3}
      propertyPath: m_ConnectedAnchor.y
      value: .000545630697
      objectReference: {fileID: 0}
    - target: {fileID: 14494500, guid: 8e0190e41a1b3c546849b622b81d2f8c, type: 3}
      propertyPath: m_ConnectedAnchor.z
      value: 9.52128516e-07
      objectReference: {fileID: 0}
    m_RemovedComponents: []
  m_SourcePrefab: {fileID: 100100000, guid: 8e0190e41a1b3c546849b622b81d2f8c, type: 3}
--- !u!1001 &2019417276
PrefabInstance:
  m_ObjectHideFlags: 0
  serializedVersion: 2
  m_Modification:
    m_TransformParent: {fileID: 0}
    m_Modifications:
    - target: {fileID: 180552, guid: 479c1a4c922732847979950f15bb0d32, type: 3}
      propertyPath: m_IsActive
      value: 1
      objectReference: {fileID: 0}
    - target: {fileID: 468966, guid: 479c1a4c922732847979950f15bb0d32, type: 3}
      propertyPath: m_RootOrder
      value: 7
      objectReference: {fileID: 0}
    - target: {fileID: 468966, guid: 479c1a4c922732847979950f15bb0d32, type: 3}
      propertyPath: m_LocalPosition.x
      value: 2.67400002
      objectReference: {fileID: 0}
    - target: {fileID: 468966, guid: 479c1a4c922732847979950f15bb0d32, type: 3}
      propertyPath: m_LocalPosition.y
      value: 0
      objectReference: {fileID: 0}
    - target: {fileID: 468966, guid: 479c1a4c922732847979950f15bb0d32, type: 3}
      propertyPath: m_LocalPosition.z
      value: 1.21000004
      objectReference: {fileID: 0}
    - target: {fileID: 468966, guid: 479c1a4c922732847979950f15bb0d32, type: 3}
      propertyPath: m_LocalRotation.w
      value: 1
      objectReference: {fileID: 0}
    - target: {fileID: 468966, guid: 479c1a4c922732847979950f15bb0d32, type: 3}
      propertyPath: m_LocalRotation.x
      value: 0
      objectReference: {fileID: 0}
    - target: {fileID: 468966, guid: 479c1a4c922732847979950f15bb0d32, type: 3}
      propertyPath: m_LocalRotation.y
      value: 0
      objectReference: {fileID: 0}
    - target: {fileID: 468966, guid: 479c1a4c922732847979950f15bb0d32, type: 3}
      propertyPath: m_LocalRotation.z
      value: 0
      objectReference: {fileID: 0}
    - target: {fileID: 2346640, guid: 479c1a4c922732847979950f15bb0d32, type: 3}
      propertyPath: m_Materials.Array.data[0]
      value: 
      objectReference: {fileID: 2100000, guid: 0b71649a35fdfd84ca6a4c7068f59100, type: 2}
    - target: {fileID: 6525258, guid: 479c1a4c922732847979950f15bb0d32, type: 3}
      propertyPath: m_Size.x
      value: .100000001
      objectReference: {fileID: 0}
    - target: {fileID: 6525258, guid: 479c1a4c922732847979950f15bb0d32, type: 3}
      propertyPath: m_Size.z
      value: .370000005
      objectReference: {fileID: 0}
    - target: {fileID: 6591352, guid: 479c1a4c922732847979950f15bb0d32, type: 3}
      propertyPath: m_Size.y
      value: .300000012
      objectReference: {fileID: 0}
    - target: {fileID: 6591352, guid: 479c1a4c922732847979950f15bb0d32, type: 3}
      propertyPath: m_Center.y
      value: .0299999993
      objectReference: {fileID: 0}
    - target: {fileID: 9517860, guid: 479c1a4c922732847979950f15bb0d32, type: 3}
      propertyPath: m_Enabled
      value: 0
      objectReference: {fileID: 0}
    - target: {fileID: 13616374, guid: 479c1a4c922732847979950f15bb0d32, type: 3}
      propertyPath: m_Height
      value: .230000004
      objectReference: {fileID: 0}
    - target: {fileID: 13616374, guid: 479c1a4c922732847979950f15bb0d32, type: 3}
      propertyPath: m_Center.y
      value: .00999999978
      objectReference: {fileID: 0}
    - target: {fileID: 13637952, guid: 479c1a4c922732847979950f15bb0d32, type: 3}
      propertyPath: m_Height
      value: .379999995
      objectReference: {fileID: 0}
    - target: {fileID: 13637952, guid: 479c1a4c922732847979950f15bb0d32, type: 3}
      propertyPath: m_Radius
      value: .0700000003
      objectReference: {fileID: 0}
    - target: {fileID: 13637952, guid: 479c1a4c922732847979950f15bb0d32, type: 3}
      propertyPath: m_Center.x
      value: -.170000002
      objectReference: {fileID: 0}
    - target: {fileID: 13641650, guid: 479c1a4c922732847979950f15bb0d32, type: 3}
      propertyPath: m_Height
      value: .230000004
      objectReference: {fileID: 0}
    - target: {fileID: 13641650, guid: 479c1a4c922732847979950f15bb0d32, type: 3}
      propertyPath: m_Radius
      value: .100000001
      objectReference: {fileID: 0}
    - target: {fileID: 13641650, guid: 479c1a4c922732847979950f15bb0d32, type: 3}
      propertyPath: m_Center.y
      value: .00999999978
      objectReference: {fileID: 0}
    - target: {fileID: 13699984, guid: 479c1a4c922732847979950f15bb0d32, type: 3}
      propertyPath: m_Height
      value: .340000004
      objectReference: {fileID: 0}
    - target: {fileID: 13699984, guid: 479c1a4c922732847979950f15bb0d32, type: 3}
      propertyPath: m_Radius
      value: .0799999982
      objectReference: {fileID: 0}
    - target: {fileID: 13699984, guid: 479c1a4c922732847979950f15bb0d32, type: 3}
      propertyPath: m_Center.x
      value: -.170000002
      objectReference: {fileID: 0}
    - target: {fileID: 14406276, guid: 479c1a4c922732847979950f15bb0d32, type: 3}
      propertyPath: m_ConnectedAnchor.y
      value: 9.31700828e-10
      objectReference: {fileID: 0}
    - target: {fileID: 14406276, guid: 479c1a4c922732847979950f15bb0d32, type: 3}
      propertyPath: m_ConnectedAnchor.z
      value: 1.10739904e-07
      objectReference: {fileID: 0}
    - target: {fileID: 14410102, guid: 479c1a4c922732847979950f15bb0d32, type: 3}
      propertyPath: m_ConnectedAnchor.y
      value: -5.07567997e-08
      objectReference: {fileID: 0}
    - target: {fileID: 14410102, guid: 479c1a4c922732847979950f15bb0d32, type: 3}
      propertyPath: m_ConnectedAnchor.z
      value: 3.62341694e-08
      objectReference: {fileID: 0}
    - target: {fileID: 14411786, guid: 479c1a4c922732847979950f15bb0d32, type: 3}
      propertyPath: m_ConnectedAnchor.y
      value: .000545511488
      objectReference: {fileID: 0}
    - target: {fileID: 14411786, guid: 479c1a4c922732847979950f15bb0d32, type: 3}
      propertyPath: m_ConnectedAnchor.z
      value: 9.52128858e-07
      objectReference: {fileID: 0}
    - target: {fileID: 14428512, guid: 479c1a4c922732847979950f15bb0d32, type: 3}
      propertyPath: m_ConnectedAnchor.y
      value: -.00644238153
      objectReference: {fileID: 0}
    - target: {fileID: 14428512, guid: 479c1a4c922732847979950f15bb0d32, type: 3}
      propertyPath: m_ConnectedAnchor.z
      value: -.0981198624
      objectReference: {fileID: 0}
    - target: {fileID: 14433760, guid: 479c1a4c922732847979950f15bb0d32, type: 3}
      propertyPath: m_ConnectedAnchor.x
      value: -.16373536
      objectReference: {fileID: 0}
    - target: {fileID: 14433760, guid: 479c1a4c922732847979950f15bb0d32, type: 3}
      propertyPath: m_ConnectedAnchor.y
      value: -3.20142135e-08
      objectReference: {fileID: 0}
    - target: {fileID: 14433760, guid: 479c1a4c922732847979950f15bb0d32, type: 3}
      propertyPath: m_ConnectedAnchor.z
      value: -1.49011612e-08
      objectReference: {fileID: 0}
    - target: {fileID: 14437312, guid: 479c1a4c922732847979950f15bb0d32, type: 3}
      propertyPath: m_ConnectedAnchor.x
      value: 1.49011569e-07
      objectReference: {fileID: 0}
    - target: {fileID: 14437312, guid: 479c1a4c922732847979950f15bb0d32, type: 3}
      propertyPath: m_ConnectedAnchor.y
      value: 1.83588e-07
      objectReference: {fileID: 0}
    - target: {fileID: 14437312, guid: 479c1a4c922732847979950f15bb0d32, type: 3}
      propertyPath: m_ConnectedAnchor.z
      value: .108087063
      objectReference: {fileID: 0}
    - target: {fileID: 14463396, guid: 479c1a4c922732847979950f15bb0d32, type: 3}
      propertyPath: m_ConnectedAnchor.y
      value: -.00644287653
      objectReference: {fileID: 0}
    - target: {fileID: 14463396, guid: 479c1a4c922732847979950f15bb0d32, type: 3}
      propertyPath: m_ConnectedAnchor.z
      value: .0981198549
      objectReference: {fileID: 0}
    - target: {fileID: 14464944, guid: 479c1a4c922732847979950f15bb0d32, type: 3}
      propertyPath: m_ConnectedAnchor.y
      value: .00459071528
      objectReference: {fileID: 0}
    - target: {fileID: 14464944, guid: 479c1a4c922732847979950f15bb0d32, type: 3}
      propertyPath: m_ConnectedAnchor.z
      value: 5.01719093e-08
      objectReference: {fileID: 0}
    - target: {fileID: 14475460, guid: 479c1a4c922732847979950f15bb0d32, type: 3}
      propertyPath: m_ConnectedAnchor.x
      value: -1.49011569e-07
      objectReference: {fileID: 0}
    - target: {fileID: 14475460, guid: 479c1a4c922732847979950f15bb0d32, type: 3}
      propertyPath: m_ConnectedAnchor.y
      value: -1.83588e-07
      objectReference: {fileID: 0}
    - target: {fileID: 14475460, guid: 479c1a4c922732847979950f15bb0d32, type: 3}
      propertyPath: m_ConnectedAnchor.z
      value: -.108087063
      objectReference: {fileID: 0}
    - target: {fileID: 14496532, guid: 479c1a4c922732847979950f15bb0d32, type: 3}
      propertyPath: m_ConnectedAnchor.x
      value: -.163735211
      objectReference: {fileID: 0}
    - target: {fileID: 14496532, guid: 479c1a4c922732847979950f15bb0d32, type: 3}
      propertyPath: m_ConnectedAnchor.y
      value: 5.7509169e-08
      objectReference: {fileID: 0}
    - target: {fileID: 14496532, guid: 479c1a4c922732847979950f15bb0d32, type: 3}
      propertyPath: m_ConnectedAnchor.z
      value: -7.4505806e-09
      objectReference: {fileID: 0}
    m_RemovedComponents: []
  m_SourcePrefab: {fileID: 100100000, guid: 479c1a4c922732847979950f15bb0d32, type: 3}
